module jpath

go 1.15

require (
	github.com/TylerBrock/colorjson v0.0.0-20200706003622-8a50f05110d2
	github.com/buger/jsonparser v1.1.1
	github.com/fatih/color v1.13.0 // indirect
	github.com/hokaccha/go-prettyjson v0.0.0-20211117102719-0474bc63780f // indirect
	github.com/olekukonko/tablewriter v0.0.5
	github.com/pkg/errors v0.9.1
	github.com/sirupsen/logrus v1.8.1
	github.com/spf13/cobra v1.2.1
	github.com/stretchr/testify v1.7.0
)
